signed y
bv_a   1
bv_r   1
bv_e   0
q      0
astb   18
ifb    0
shft_r 0
shft_l 0
x0 0 1
x1 0 1
x2 0 1
x3 0 1
x4 0 1
x5 0 1
x6 0 1
x7 0 1
x8 0 1
x9 0 1
x10 0 1
x11 0 1
x12 0 1
x13 0 1
x14 0 1
x15 0 1
k0 0 1
k1 0 1
k2 0 1
k3 0 1
k4 0 1
k5 0 1
k6 0 1
k7 0 1
k8 0 1
k9 0 1
k10 0 1
k11 0 1
k12 0 1
k13 0 1
k14 0 1
k15 0 1
r0 0 1
r1 0 1
r2 0 1
r3 0 1
r4 0 1
r5 0 1
r6 0 1
r7 0 1
r8 0 1
r9 0 1
r10 0 1
r11 0 1
r12 0 1
r13 0 1
r14 0 1
r15 0 1
step 0
error 0
accumulate 0
mode 4
GetErrRange 0
algorithm_1c2m3i 3

